<?xml version="1.0" encoding="UTF-8"?>
<svg width="100px" height="100px" viewBox="0 0 100 100" version="1.1" xmlns="http://www.w3.org/2000/svg" xmlns:xlink="http://www.w3.org/1999/xlink">
    <!-- Generator: Sketch 42 (36781) - http://www.bohemiancoding.com/sketch -->
    <title>Group 17</title>
    <desc>Created with Sketch.</desc>
    <defs></defs>
    <g id="UI" stroke="none" stroke-width="1" fill="none" fill-rule="evenodd">
        <g id="UI-Avatar-Placeholders" transform="translate(-170.000000, -230.000000)">
            <g id="Group-17" transform="translate(170.000000, 230.000000)">
                <rect id="Rectangle" fill="#F7F7F7" x="0" y="0" width="100" height="100"></rect>
                <g id="Shape" transform="translate(15.555556, 25.555556)" fill="#999999">
                    <polygon id="Fill-1" points="17.848 -0.000111111111 14.3757778 1.41655556 12.0124444 12.7398889 14.1857778 13.1954444 16.3102222 3.02766667 18.2846667 2.22211111 51.7135556 2.22211111 53.6902222 3.02766667 55.8135556 13.1954444 57.988 12.7398889 55.6235556 1.41655556 52.1502222 -0.000111111111"></polygon>
                    <path d="M61.1111111,31.4084444 C61.1111111,32.0228889 60.6144444,32.5195556 60,32.5195556 L53.3333333,32.5195556 C52.7188889,32.5195556 52.2222222,32.0228889 52.2222222,31.4084444 L52.2222222,29.1862222 C52.2222222,28.5728889 52.7188889,28.0751111 53.3333333,28.0751111 L60,28.0751111 C60.6144444,28.0751111 61.1111111,28.5728889 61.1111111,29.1862222 L61.1111111,31.4084444 Z M54.8888889,37.6995556 C53.9666667,37.6995556 53.22,36.9517778 53.22,36.0295556 C53.22,35.114 53.9666667,34.3662222 54.8888889,34.3662222 C55.8055556,34.3662222 56.5533333,35.114 56.5533333,36.0295556 C56.5533333,36.9517778 55.8055556,37.6995556 54.8888889,37.6995556 L54.8888889,37.6995556 Z M42.2,36.964 L44.4677778,36.964 L44.4677778,26.964 L42.2,26.964 L42.2,36.964 Z M36.6444444,36.964 L38.9122222,36.964 L38.9122222,26.964 L36.6444444,26.964 L36.6444444,36.964 Z M31.0888889,36.964 L33.3566667,36.964 L33.3566667,26.964 L31.0888889,26.964 L31.0888889,36.964 Z M25.5333333,36.964 L27.8011111,36.964 L27.8011111,26.964 L25.5333333,26.964 L25.5333333,36.964 Z M17.7777778,31.4084444 C17.7777778,32.0228889 17.2811111,32.5195556 16.6666667,32.5195556 L10,32.5195556 C9.38555556,32.5195556 8.88888889,32.0228889 8.88888889,31.4084444 L8.88888889,29.1862222 C8.88888889,28.5728889 9.38555556,28.0751111 10,28.0751111 L16.6666667,28.0751111 C17.2811111,28.0751111 17.7777778,28.5728889 17.7777778,29.1862222 L17.7777778,31.4084444 Z M15.1111111,37.6995556 C14.1944444,37.6995556 13.4444444,36.9517778 13.4444444,36.0295556 C13.4444444,35.114 14.1944444,34.3662222 15.1111111,34.3662222 C16.0333333,34.3662222 16.7777778,35.114 16.7777778,36.0295556 C16.7777778,36.9517778 16.0333333,37.6995556 15.1111111,37.6995556 L15.1111111,37.6995556 Z M68.8888889,13.9628889 L61.3344444,13.9628889 C60.5533333,13.9628889 59.92,14.5973333 59.92,15.3784444 L59.92,15.9551111 L57.9444444,16.8262222 L49.0388889,17.7773333 L35,13.9628889 L20.9611111,17.7773333 L12.0555556,16.8262222 L10.08,15.9551111 L10.08,15.3784444 C10.08,14.5973333 9.44666667,13.9628889 8.66333333,13.9628889 L1.11111111,13.9628889 C0.327777778,13.9628889 0,14.3706667 0,15.1517778 L0,17.374 C0,18.1551111 0.712222222,19.074 1.49555556,19.074 L4.95333333,19.6817778 L2.22222222,25.5551111 L2.22222222,44.444 L4.44444444,45.5551111 L4.44444444,48.8884444 L14.4577778,48.8884444 L14.4577778,45.5551111 L34.4444444,45.5551111 L35.5555556,45.5551111 L55.5422222,45.5551111 L55.5422222,48.8884444 L65.5555556,48.8884444 L65.5555556,45.5551111 L67.7777778,44.444 L67.7777778,25.5551111 L65.0466667,19.6817778 L68.5044444,19.074 C69.2855556,19.074 70,18.1551111 70,17.374 L70,15.1517778 C70,14.3706667 69.67,13.9628889 68.8888889,13.9628889 L68.8888889,13.9628889 Z" id="Fill-2"></path>
                </g>
            </g>
        </g>
    </g>
</svg>