<?xml version="1.0" encoding="UTF-8"?>
<svg width="100px" height="100px" viewBox="0 0 100 100" version="1.1" xmlns="http://www.w3.org/2000/svg" xmlns:xlink="http://www.w3.org/1999/xlink">
    <!-- Generator: Sketch 42 (36781) - http://www.bohemiancoding.com/sketch -->
    <title>Group 16</title>
    <desc>Created with Sketch.</desc>
    <defs></defs>
    <g id="UI" stroke="none" stroke-width="1" fill="none" fill-rule="evenodd">
        <g id="UI-Avatar-Placeholders" transform="translate(-60.000000, -230.000000)">
            <g id="Group-16" transform="translate(60.000000, 230.000000)">
                <rect id="Rectangle" fill="#F7F7F7" x="0" y="0" width="100" height="100"></rect>
                <g id="Shape" transform="translate(16.666667, 25.555556)" fill="#999999">
                    <path d="M18.3788889,5.11666667 C21.13,3.34666667 26.8611111,2.23777778 33.3344444,2.22222222 C39.8077778,2.23777778 45.5366667,3.34666667 48.2877778,5.11666667 C49.7355556,6.04888889 51.3544444,9.96222222 52.0344444,12.21 L54.1611111,11.5666667 C53.9577778,10.8922222 52.0955556,4.92444444 49.49,3.24777778 C46.3555556,1.23 40.3166667,0.0166666667 33.3366667,0 L33.33,0.00555555556 L33.33,0 C26.35,0.0166666667 20.3111111,1.23 17.1766667,3.24777778 C14.5711111,4.92444444 12.7088889,10.8922222 12.5055556,11.5666667 L14.6322222,12.21 C15.3122222,9.96222222 16.9311111,6.04888889 18.3788889,5.11666667" id="Fill-1"></path>
                    <path d="M56.6688889,35.37 C55.4388889,35.37 54.4444444,34.3733333 54.4444444,33.1433333 C54.4444444,31.9222222 55.4388889,30.9255556 56.6688889,30.9255556 C57.89,30.9255556 58.8888889,31.9222222 58.8888889,33.1433333 C58.8888889,34.3733333 57.89,35.37 56.6688889,35.37 L56.6688889,35.37 Z M51.7155556,39.8144444 C50.7933333,39.8144444 50.0466667,39.0666667 50.0466667,38.1444444 C50.0466667,37.2288889 50.7933333,36.4811111 51.7155556,36.4811111 C52.6311111,36.4811111 53.38,37.2288889 53.38,38.1444444 C53.38,39.0666667 52.6311111,39.8144444 51.7155556,39.8144444 L51.7155556,39.8144444 Z M21.1111111,39.8277778 L45.5555556,39.8277778 L45.5555556,37.58 L21.1111111,37.58 L21.1111111,39.8277778 Z M14.9511111,39.8144444 C14.0355556,39.8144444 13.2866667,39.0666667 13.2866667,38.1444444 C13.2866667,37.2288889 14.0355556,36.4811111 14.9511111,36.4811111 C15.8733333,36.4811111 16.62,37.2288889 16.62,38.1444444 C16.62,39.0666667 15.8733333,39.8144444 14.9511111,39.8144444 L14.9511111,39.8144444 Z M9.99777778,35.37 C8.77666667,35.37 7.77777778,34.3733333 7.77777778,33.1433333 C7.77777778,31.9222222 8.77666667,30.9255556 9.99777778,30.9255556 C11.2288889,30.9255556 12.2222222,31.9222222 12.2222222,33.1433333 C12.2222222,34.3733333 11.2288889,35.37 9.99777778,35.37 L9.99777778,35.37 Z M66.6666667,17.5922222 L66.6666667,15.37 C66.6666667,14.5888889 66.3377778,14.2588889 65.5555556,14.2588889 L56.6666667,14.2588889 C55.8844444,14.2588889 55.4855556,14.5888889 55.4855556,15.37 L55.4855556,16.2144444 L55.4,16.1944444 C55.4,16.1944444 50.17,18.2344444 48.2111111,18.7033333 C45.0811111,19.4522222 39.1266667,19.7677778 33.3333333,19.8844444 C27.54,19.7677778 21.5855556,19.4522222 18.4555556,18.7033333 C16.4966667,18.2344444 11.2666667,16.1944444 11.2666667,16.1944444 L11.1822222,16.2144444 L11.1822222,14.2588889 C11.1822222,13.4777778 10.7822222,13.1477778 10,13.1477778 L1.11111111,13.1477778 C0.328888889,13.1477778 0,13.4777778 0,14.2588889 L0,16.4811111 C0,17.2622222 1.44,18.7033333 2.22222222,18.7033333 L4.91444444,19.1 L0,30.6522222 L0,45.37 L3.33333333,46.5711111 L3.33333333,49.8144444 L14.4444444,49.8144444 L14.4444444,46.4811111 L33.3333333,46.7 L52.2222222,46.4811111 L52.2222222,49.8144444 L63.3333333,49.8144444 L63.3333333,46.5711111 L66.6666667,45.37 L66.6666667,30.6522222 L62.1977778,20.1455556 L64.4444444,19.8144444 C65.2266667,19.8144444 66.6666667,18.3733333 66.6666667,17.5922222 L66.6666667,17.5922222 Z" id="Fill-3"></path>
                    <polygon id="Fill-5" points="27.0876667 10.6857778 33.7543333 15.9635556 35.1343333 14.2213333 28.4676667 8.94355556"></polygon>
                    <polygon id="Fill-7" points="41.8012222 11.9986667 35.1345556 6.72088889 33.7545556 8.46311111 40.4212222 13.7408889"></polygon>
                </g>
            </g>
        </g>
    </g>
</svg>