<?xml version="1.0" encoding="UTF-8"?>
<svg width="100px" height="100px" viewBox="0 0 100 100" version="1.1" xmlns="http://www.w3.org/2000/svg" xmlns:xlink="http://www.w3.org/1999/xlink">
    <!-- Generator: Sketch 42 (36781) - http://www.bohemiancoding.com/sketch -->
    <title>Group</title>
    <desc>Created with Sketch.</desc>
    <defs>
        <polygon id="path-1" points="60 14.444 60 -0.000444444444 0.000333333333 -0.000444444444 0.000333333333 14.444 60 14.444"></polygon>
    </defs>
    <g id="UI" stroke="none" stroke-width="1" fill="none" fill-rule="evenodd">
        <g id="UI-Avatar-Placeholders" transform="translate(-60.000000, -60.000000)">
            <g id="Group" transform="translate(60.000000, 60.000000)">
                <rect id="Rectangle" fill="#F7F7F7" x="0" y="0" width="100" height="100"></rect>
                <g id="Shape" transform="translate(20.000000, 22.222222)">
                    <path d="M29.9956667,25.5284444 L29.9956667,27.7506667 C26.0156667,27.7506667 22.7778889,30.9895556 22.7778889,34.9695556 L20.5556667,34.9695556 C20.5556667,29.764 24.7901111,25.5284444 29.9956667,25.5284444 M29.9956667,47.2406667 C36.7623333,47.2406667 42.2667778,41.7362222 42.2667778,34.9695556 C42.2667778,28.2073333 36.7623333,22.7062222 29.9956667,22.7062222 C23.2345556,22.7062222 17.7334444,28.2073333 17.7334444,34.9695556 C17.7334444,41.7362222 23.2345556,47.2406667 29.9956667,47.2406667" id="Fill-1" fill="#999999"></path>
                    <g id="Group-5" transform="translate(0.000000, 11.112222)">
                        <mask id="mask-2" fill="white">
                            <use xlink:href="#path-1"></use>
                        </mask>
                        <g id="Clip-4"></g>
                        <path d="M53.9192222,11.1773333 C52.9792222,11.1773333 52.2225556,10.4151111 52.2225556,9.48066667 C52.2225556,8.54066667 52.9792222,7.77733333 53.9192222,7.77733333 C54.8581111,7.77733333 55.617,8.54066667 55.617,9.48066667 C55.617,10.4151111 54.8581111,11.1773333 53.9192222,11.1773333 M55.5558889,4.444 L36.667,4.444 L34.4447778,4.444 L13.3336667,4.444 L13.3336667,1.13844444 C13.3336667,0.511777778 12.8203333,-0.000444444444 12.1925556,-0.000444444444 L4.47255556,-0.000444444444 C3.84588889,-0.000444444444 3.33366667,0.511777778 3.33366667,1.13844444 L3.33366667,4.59177778 C1.387,5.06844444 0.000333333333,6.76177778 0.000333333333,8.88844444 L0.000333333333,14.444 L19.1281111,14.444 C21.7692222,11.3984444 25.657,9.46066667 29.9958889,9.46066667 C34.337,9.46066667 38.227,11.3984444 40.8703333,14.444 L60.0003333,14.444 L60.0003333,8.88844444 C60.0003333,6.374 58.0692222,4.444 55.5558889,4.444" id="Fill-3" fill="#999999" mask="url(#mask-2)"></path>
                    </g>
                    <path d="M44.4,34.9696667 C44.4,42.9118889 37.9388889,49.3741111 29.9955556,49.3741111 C22.0588889,49.3741111 15.6,42.9118889 15.6,34.9696667 C15.6,32.3496667 16.3155556,29.8985556 17.5433333,27.7785556 L0,27.7785556 L0,51.1118889 C0,53.6263333 1.92888889,55.5563333 4.44444444,55.5563333 L55.5555556,55.5563333 C58.07,55.5563333 60,53.6263333 60,51.1118889 L60,27.7785556 L42.4555556,27.7785556 C43.6844444,29.8985556 44.4,32.3496667 44.4,34.9696667" id="Fill-6" fill="#999999"></path>
                    <polygon id="Fill-8" fill="#999999" points="25.3656667 10.4546667 19.8101111 2.67688889 17.9678889 3.99244444 23.5234444 11.7702222"></polygon>
                    <polygon id="Fill-10" fill="#999999" points="42.0323333 3.992 40.1901111 2.67644444 34.6345556 10.4542222 36.4767778 11.7697778"></polygon>
                    <polygon id="Fill-12" fill="#999999" points="31.1317778 0.00222222222 28.8684444 0 28.8551111 11.1111111 31.1184444 11.1133333"></polygon>
                </g>
            </g>
        </g>
    </g>
</svg>